^C:\USERS\PM170106D\DESKTOP\P1\P1\INSTRUCTIONS.CPP|C:\USERS\PM170106D\DESKTOP\P1\P1\MAIN.CPP
C:\USERS\PM170106D\DESKTOP\P1\P1\DEBUG\VC142.PDB
C:\USERS\PM170106D\DESKTOP\P1\P1\DEBUG\VC142.IDB
C:\USERS\PM170106D\DESKTOP\P1\P1\DEBUG\INSTRUCTIONS.OBJ
^C:\USERS\PM170106D\DESKTOP\P1\P1\ASSEMBLER.CPP|C:\USERS\PM170106D\DESKTOP\P1\P1\MAIN.CPP
C:\USERS\PM170106D\DESKTOP\P1\P1\DEBUG\VC142.PDB
C:\USERS\PM170106D\DESKTOP\P1\P1\DEBUG\VC142.IDB
C:\USERS\PM170106D\DESKTOP\P1\P1\DEBUG\MAIN.OBJ
C:\USERS\PM170106D\DESKTOP\P1\P1\DEBUG\ASSEMBLER.OBJ
^C:\USERS\PM170106D\DESKTOP\P1\P1\ASSEMBLER.CPP|C:\USERS\PM170106D\DESKTOP\P1\P1\MAIN.CPP|C:\USERS\PM170106D\DESKTOP\P1\P1\SYMTAB.CPP
C:\USERS\PM170106D\DESKTOP\P1\P1\DEBUG\VC142.PDB
C:\USERS\PM170106D\DESKTOP\P1\P1\DEBUG\VC142.IDB
C:\USERS\PM170106D\DESKTOP\P1\P1\DEBUG\SYMTAB.OBJ
C:\USERS\PM170106D\DESKTOP\P1\P1\DEBUG\MAIN.OBJ
^C:\USERS\PM170106D\DESKTOP\P1\P1\ASSEMBLER.CPP|C:\USERS\PM170106D\DESKTOP\P1\P1\INSTRUCTIONS.CPP|C:\USERS\PM170106D\DESKTOP\P1\P1\MAIN.CPP
C:\USERS\PM170106D\DESKTOP\P1\P1\DEBUG\VC142.PDB
C:\USERS\PM170106D\DESKTOP\P1\P1\DEBUG\VC142.IDB
C:\USERS\PM170106D\DESKTOP\P1\P1\DEBUG\MAIN.OBJ
C:\USERS\PM170106D\DESKTOP\P1\P1\DEBUG\INSTRUCTIONS.OBJ
C:\USERS\PM170106D\DESKTOP\P1\P1\DEBUG\ASSEMBLER.OBJ
^C:\USERS\PM170106D\DESKTOP\P1\P1\ASSEMBLER.CPP|C:\USERS\PM170106D\DESKTOP\P1\P1\INSTRUCTIONS.CPP
C:\USERS\PM170106D\DESKTOP\P1\P1\DEBUG\VC142.PDB
C:\USERS\PM170106D\DESKTOP\P1\P1\DEBUG\VC142.IDB
C:\USERS\PM170106D\DESKTOP\P1\P1\DEBUG\INSTRUCTIONS.OBJ
^C:\USERS\PM170106D\DESKTOP\P1\P1\ASSEMBLER.CPP|C:\USERS\PM170106D\DESKTOP\P1\P1\NODE.CPP|C:\USERS\PM170106D\DESKTOP\P1\P1\RELOCATION.CPP|C:\USERS\PM170106D\DESKTOP\P1\P1\SYMTAB.CPP
C:\USERS\PM170106D\DESKTOP\P1\P1\DEBUG\VC142.PDB
C:\USERS\PM170106D\DESKTOP\P1\P1\DEBUG\VC142.IDB
C:\USERS\PM170106D\DESKTOP\P1\P1\DEBUG\SYMTAB.OBJ
C:\USERS\PM170106D\DESKTOP\P1\P1\DEBUG\RELOCATION.OBJ
C:\USERS\PM170106D\DESKTOP\P1\P1\DEBUG\NODE.OBJ
C:\USERS\PM170106D\DESKTOP\P1\P1\DEBUG\ASSEMBLER.OBJ
^C:\USERS\PM170106D\DESKTOP\P1\P1\ASSEMBLER.CPP|C:\USERS\PM170106D\DESKTOP\P1\P1\MAIN.CPP|C:\USERS\PM170106D\DESKTOP\P1\P1\NODE.CPP|C:\USERS\PM170106D\DESKTOP\P1\P1\RELOCATION.CPP|C:\USERS\PM170106D\DESKTOP\P1\P1\SYMTAB.CPP
C:\USERS\PM170106D\DESKTOP\P1\P1\DEBUG\VC142.PDB
C:\USERS\PM170106D\DESKTOP\P1\P1\DEBUG\VC142.IDB
C:\USERS\PM170106D\DESKTOP\P1\P1\DEBUG\SYMTAB.OBJ
C:\USERS\PM170106D\DESKTOP\P1\P1\DEBUG\RELOCATION.OBJ
C:\USERS\PM170106D\DESKTOP\P1\P1\DEBUG\NODE.OBJ
C:\USERS\PM170106D\DESKTOP\P1\P1\DEBUG\ASSEMBLER.OBJ
^C:\USERS\PM170106D\DESKTOP\P1\P1\MAIN.CPP|C:\USERS\PM170106D\DESKTOP\P1\P1\NODE.CPP|C:\USERS\PM170106D\DESKTOP\P1\P1\SYMTAB.CPP
C:\USERS\PM170106D\DESKTOP\P1\P1\DEBUG\VC142.PDB
C:\USERS\PM170106D\DESKTOP\P1\P1\DEBUG\VC142.IDB
C:\USERS\PM170106D\DESKTOP\P1\P1\DEBUG\SYMTAB.OBJ
C:\USERS\PM170106D\DESKTOP\P1\P1\DEBUG\NODE.OBJ
C:\USERS\PM170106D\DESKTOP\P1\P1\DEBUG\MAIN.OBJ
^C:\USERS\PM170106D\DESKTOP\P1\P1\ASSEMBLER.CPP|C:\USERS\PM170106D\DESKTOP\P1\P1\EQU.CPP|C:\USERS\PM170106D\DESKTOP\P1\P1\INSTRUCTIONS.CPP|C:\USERS\PM170106D\DESKTOP\P1\P1\MAIN.CPP|C:\USERS\PM170106D\DESKTOP\P1\P1\NODE.CPP|C:\USERS\PM170106D\DESKTOP\P1\P1\RELOCATION.CPP|C:\USERS\PM170106D\DESKTOP\P1\P1\SYMTAB.CPP
C:\USERS\PM170106D\DESKTOP\P1\P1\DEBUG\VC142.PDB
C:\USERS\PM170106D\DESKTOP\P1\P1\DEBUG\VC142.IDB
C:\USERS\PM170106D\DESKTOP\P1\P1\DEBUG\SYMTAB.OBJ
C:\USERS\PM170106D\DESKTOP\P1\P1\DEBUG\MAIN.OBJ
C:\USERS\PM170106D\DESKTOP\P1\P1\DEBUG\INSTRUCTIONS.OBJ
C:\USERS\PM170106D\DESKTOP\P1\P1\DEBUG\ASSEMBLER.OBJ
C:\USERS\PM170106D\DESKTOP\P1\P1\DEBUG\RELOCATION.OBJ
C:\USERS\PM170106D\DESKTOP\P1\P1\DEBUG\NODE.OBJ
C:\USERS\PM170106D\DESKTOP\P1\P1\DEBUG\EQU.OBJ
^C:\USERS\PM170106D\DESKTOP\P1\P1\INSTRUCTIONS.CPP|C:\USERS\PM170106D\DESKTOP\P1\P1\MAIN.CPP|C:\USERS\PM170106D\DESKTOP\P1\P1\NODE.CPP|C:\USERS\PM170106D\DESKTOP\P1\P1\SYMTAB.CPP
C:\USERS\PM170106D\DESKTOP\P1\P1\DEBUG\VC142.PDB
C:\USERS\PM170106D\DESKTOP\P1\P1\DEBUG\VC142.IDB
C:\USERS\PM170106D\DESKTOP\P1\P1\DEBUG\SYMTAB.OBJ
C:\USERS\PM170106D\DESKTOP\P1\P1\DEBUG\MAIN.OBJ
C:\USERS\PM170106D\DESKTOP\P1\P1\DEBUG\INSTRUCTIONS.OBJ
C:\USERS\PM170106D\DESKTOP\P1\P1\DEBUG\NODE.OBJ
^C:\USERS\PM170106D\DESKTOP\P1\P1\MAIN.CPP|C:\USERS\PM170106D\DESKTOP\P1\P1\SYMTAB.CPP
C:\USERS\PM170106D\DESKTOP\P1\P1\DEBUG\VC142.PDB
C:\USERS\PM170106D\DESKTOP\P1\P1\DEBUG\VC142.IDB
C:\USERS\PM170106D\DESKTOP\P1\P1\DEBUG\SYMTAB.OBJ
C:\USERS\PM170106D\DESKTOP\P1\P1\DEBUG\MAIN.OBJ
^C:\USERS\PM170106D\DESKTOP\P1\P1\ASSEMBLER.CPP|C:\USERS\PM170106D\DESKTOP\P1\P1\EQU.CPP
C:\USERS\PM170106D\DESKTOP\P1\P1\DEBUG\VC142.PDB
C:\USERS\PM170106D\DESKTOP\P1\P1\DEBUG\VC142.IDB
C:\USERS\PM170106D\DESKTOP\P1\P1\DEBUG\ASSEMBLER.OBJ
C:\USERS\PM170106D\DESKTOP\P1\P1\DEBUG\EQU.OBJ
^C:\USERS\PM170106D\DESKTOP\P1\P1\INSTRUCTIONS.CPP
C:\USERS\PM170106D\DESKTOP\P1\P1\DEBUG\VC142.PDB
C:\USERS\PM170106D\DESKTOP\P1\P1\DEBUG\VC142.IDB
C:\USERS\PM170106D\DESKTOP\P1\P1\DEBUG\INSTRUCTIONS.OBJ
^C:\USERS\PM170106D\DESKTOP\P1\P1\NODE.CPP|C:\USERS\PM170106D\DESKTOP\P1\P1\SYMTAB.CPP
C:\USERS\PM170106D\DESKTOP\P1\P1\DEBUG\VC142.PDB
C:\USERS\PM170106D\DESKTOP\P1\P1\DEBUG\VC142.IDB
C:\USERS\PM170106D\DESKTOP\P1\P1\DEBUG\SYMTAB.OBJ
C:\USERS\PM170106D\DESKTOP\P1\P1\DEBUG\NODE.OBJ
^C:\USERS\PM170106D\DESKTOP\P1\P1\ASSEMBLER.CPP|C:\USERS\PM170106D\DESKTOP\P1\P1\EQU.CPP|C:\USERS\PM170106D\DESKTOP\P1\P1\NODE.CPP|C:\USERS\PM170106D\DESKTOP\P1\P1\SYMTAB.CPP
C:\USERS\PM170106D\DESKTOP\P1\P1\DEBUG\VC142.PDB
C:\USERS\PM170106D\DESKTOP\P1\P1\DEBUG\VC142.IDB
C:\USERS\PM170106D\DESKTOP\P1\P1\DEBUG\SYMTAB.OBJ
C:\USERS\PM170106D\DESKTOP\P1\P1\DEBUG\ASSEMBLER.OBJ
C:\USERS\PM170106D\DESKTOP\P1\P1\DEBUG\NODE.OBJ
C:\USERS\PM170106D\DESKTOP\P1\P1\DEBUG\EQU.OBJ
^C:\USERS\PM170106D\DESKTOP\P1\P1\ASSEMBLER.CPP|C:\USERS\PM170106D\DESKTOP\P1\P1\EQU.CPP|C:\USERS\PM170106D\DESKTOP\P1\P1\MAIN.CPP|C:\USERS\PM170106D\DESKTOP\P1\P1\NODE.CPP|C:\USERS\PM170106D\DESKTOP\P1\P1\RELOCATION.CPP|C:\USERS\PM170106D\DESKTOP\P1\P1\SYMTAB.CPP
C:\USERS\PM170106D\DESKTOP\P1\P1\DEBUG\VC142.PDB
C:\USERS\PM170106D\DESKTOP\P1\P1\DEBUG\VC142.IDB
C:\USERS\PM170106D\DESKTOP\P1\P1\DEBUG\SYMTAB.OBJ
C:\USERS\PM170106D\DESKTOP\P1\P1\DEBUG\MAIN.OBJ
C:\USERS\PM170106D\DESKTOP\P1\P1\DEBUG\ASSEMBLER.OBJ
C:\USERS\PM170106D\DESKTOP\P1\P1\DEBUG\RELOCATION.OBJ
C:\USERS\PM170106D\DESKTOP\P1\P1\DEBUG\NODE.OBJ
C:\USERS\PM170106D\DESKTOP\P1\P1\DEBUG\EQU.OBJ
^C:\USERS\PM170106D\DESKTOP\P1\P1\EQU.CPP
C:\USERS\PM170106D\DESKTOP\P1\P1\DEBUG\VC142.PDB
^C:\USERS\PM170106D\DESKTOP\P1\P1\MAIN.CPP
C:\USERS\PM170106D\DESKTOP\P1\P1\DEBUG\VC142.PDB
C:\USERS\PM170106D\DESKTOP\P1\P1\DEBUG\VC142.IDB
C:\USERS\PM170106D\DESKTOP\P1\P1\DEBUG\MAIN.OBJ
^C:\USERS\PM170106D\DESKTOP\P1\P1\ASSEMBLER.CPP|C:\USERS\PM170106D\DESKTOP\P1\P1\NODE.CPP
C:\USERS\PM170106D\DESKTOP\P1\P1\DEBUG\VC142.PDB
C:\USERS\PM170106D\DESKTOP\P1\P1\DEBUG\VC142.IDB
C:\USERS\PM170106D\DESKTOP\P1\P1\DEBUG\ASSEMBLER.OBJ
C:\USERS\PM170106D\DESKTOP\P1\P1\DEBUG\NODE.OBJ
^C:\USERS\PM170106D\DESKTOP\P1\P1\NODE.CPP
C:\USERS\PM170106D\DESKTOP\P1\P1\DEBUG\VC142.PDB
^C:\USERS\PM170106D\DESKTOP\P1\P1\ASSEMBLER.CPP|C:\USERS\PM170106D\DESKTOP\P1\P1\SYMTAB.CPP
C:\USERS\PM170106D\DESKTOP\P1\P1\DEBUG\VC142.PDB
C:\USERS\PM170106D\DESKTOP\P1\P1\DEBUG\VC142.IDB
C:\USERS\PM170106D\DESKTOP\P1\P1\DEBUG\SYMTAB.OBJ
C:\USERS\PM170106D\DESKTOP\P1\P1\DEBUG\ASSEMBLER.OBJ
^C:\USERS\PM170106D\DESKTOP\P1\P1\SYMTAB.CPP
C:\USERS\PM170106D\DESKTOP\P1\P1\DEBUG\VC142.PDB
^C:\USERS\PM170106D\DESKTOP\P1\P1\RELOCATION.CPP
C:\USERS\PM170106D\DESKTOP\P1\P1\DEBUG\VC142.PDB
C:\USERS\PM170106D\DESKTOP\P1\P1\DEBUG\VC142.IDB
C:\USERS\PM170106D\DESKTOP\P1\P1\DEBUG\RELOCATION.OBJ
^C:\USERS\PM170106D\DESKTOP\P1\P1\ASSEMBLER.CPP
C:\USERS\PM170106D\DESKTOP\P1\P1\DEBUG\VC142.PDB
C:\USERS\PM170106D\DESKTOP\P1\P1\DEBUG\VC142.IDB
C:\USERS\PM170106D\DESKTOP\P1\P1\DEBUG\ASSEMBLER.OBJ
