^C:\USERS\PM170106D\DESKTOP\P1\P1\DEBUG\ASSEMBLER.OBJ|C:\USERS\PM170106D\DESKTOP\P1\P1\DEBUG\EQU.OBJ|C:\USERS\PM170106D\DESKTOP\P1\P1\DEBUG\INSTRUCTIONS.OBJ|C:\USERS\PM170106D\DESKTOP\P1\P1\DEBUG\MAIN.OBJ|C:\USERS\PM170106D\DESKTOP\P1\P1\DEBUG\NODE.OBJ|C:\USERS\PM170106D\DESKTOP\P1\P1\DEBUG\RELOCATION.OBJ|C:\USERS\PM170106D\DESKTOP\P1\P1\DEBUG\SYMTAB.OBJ
C:\USERS\PM170106D\DESKTOP\P1\DEBUG\P1.EXE
C:\USERS\PM170106D\DESKTOP\P1\DEBUG\P1.ILK
C:\USERS\PM170106D\DESKTOP\P1\DEBUG\P1.PDB
